// Jest Snapshot v1, https://goo.gl/fbAQLP

exports[`renders correctly 1`] = `
<View
  style={
    Object {
      "alignItems": "center",
      "backgroundColor": "#7ABE52",
      "flex": 1,
      "justifyContent": "center",
    }
  }
>
  <Image
    source={1}
  />
</View>
`;
