// Jest Snapshot v1, https://goo.gl/fbAQLP

exports[`renders correctly 1`] = `
<SelectableCard
  executed={false}
  listIndex={0}
  listLength={1}
  onPress={[Function]}
  plant={
    Object {
      "gender": "male",
      "name": "Moranguinho",
    }
  }
  selected={false}
  setExecuted={[Function]}
  type="WATER"
>
  <View
    style={
      Array [
        Object {
          "flex": 1,
        },
        Object {
          "alignItems": "center",
          "justifyContent": "center",
        },
      ]
    }
  >
    <TaskIcon
      source={1}
      style={
        Object {
          "color": "#95989A",
          "fontSize": 20,
        }
      }
      type="WATER"
    />
  </View>
  <View
    style={
      Array [
        Object {
          "flex": 3,
          "flexDirection": "column",
        },
        Object {
          "justifyContent": "center",
        },
      ]
    }
  >
    <PlantName
      gender="male"
      name="Moranguinho"
    />
    <Text
      accessible={true}
      allowFontScaling={true}
      ellipsizeMode="tail"
      style={
        Object {
          "color": "#3C484A",
          "fontSize": 12,
        }
      }
    >
      [missing "en.tasks.types.WATER" translation]
    </Text>
  </View>
  <View
    style={
      Array [
        Object {
          "flex": 1,
        },
        Object {
          "alignItems": "flex-end",
          "justifyContent": "center",
        },
      ]
    }
  >
    <Touchable
      disabled={false}
      onPress={[Function]}
    >
      <Icon
        color="#24B574"
        name="square-o"
        roundedWhite={false}
        size={18}
      />
    </Touchable>
  </View>
</SelectableCard>
`;
