// Jest Snapshot v1, https://goo.gl/fbAQLP

exports[`renders correctly 1`] = `
<ScrollView
  style={
    Object {
      "backgroundColor": "#495157",
      "marginTop": -20,
    }
  }
>
  <View
    style={
      Object {
        "flex": 1,
      }
    }
  >
    <View
      style={
        Object {
          "alignItems": "center",
          "backgroundColor": "#3C484A",
          "flexDirection": "row",
          "height": 172,
          "paddingLeft": 20,
        }
      }
    >
      <RoundedIcon
        source={1}
        style={
          Object {
            "height": 64,
            "width": 64,
          }
        }
      />
      <View
        style={
          Object {
            "marginLeft": 15,
          }
        }
      >
        <Text
          accessible={true}
          allowFontScaling={true}
          ellipsizeMode="tail"
          style={
            Object {
              "color": "#FFFFFF",
              "fontSize": 16,
              "fontWeight": "bold",
              "marginBottom": 5,
            }
          }
        >
          usernick
        </Text>
        <Text
          accessible={true}
          allowFontScaling={true}
          ellipsizeMode="tail"
          style={
            Object {
              "color": "#7AD3AB",
              "fontSize": 14,
            }
          }
        >
          user@example.com
        </Text>
      </View>
    </View>
    <View
      style={
        Object {
          "marginHorizontal": 20,
        }
      }
    >
      <TouchableHighlight
        activeOpacity={0.85}
        onPress={[Function]}
        underlayColor="black"
      >
        <View
          style={
            Object {
              "borderBottomColor": "#41484E",
              "borderBottomWidth": 1,
              "flexDirection": "row",
              "paddingHorizontal": 10,
              "paddingVertical": 15,
            }
          }
        >
          <Image
            source={1}
          />
          <Text
            accessible={true}
            allowFontScaling={true}
            ellipsizeMode="tail"
            style={
              Object {
                "color": "#CCCCCC",
                "fontSize": 12,
                "marginLeft": 10,
              }
            }
          >
            [MISSING "EN.SCREENS.DRAWER.TASKS" TRANSLATION]
          </Text>
        </View>
      </TouchableHighlight>
      <TouchableHighlight
        activeOpacity={0.85}
        onPress={[Function]}
        underlayColor="black"
      >
        <View
          style={
            Object {
              "borderBottomColor": "#41484E",
              "borderBottomWidth": 1,
              "flexDirection": "row",
              "paddingHorizontal": 10,
              "paddingVertical": 15,
            }
          }
        >
          <Image
            source={1}
          />
          <Text
            accessible={true}
            allowFontScaling={true}
            ellipsizeMode="tail"
            style={
              Object {
                "color": "#CCCCCC",
                "fontSize": 12,
                "marginLeft": 10,
              }
            }
          >
            [MISSING "EN.SCREENS.DRAWER.PLANTS" TRANSLATION]
          </Text>
        </View>
      </TouchableHighlight>
      <TouchableHighlight
        activeOpacity={0.85}
        onPress={[Function]}
        underlayColor="black"
      >
        <View
          style={
            Object {
              "borderBottomColor": "#41484E",
              "borderBottomWidth": 1,
              "flexDirection": "row",
              "paddingHorizontal": 10,
              "paddingVertical": 15,
            }
          }
        >
          <Image
            source={1}
          />
          <Text
            accessible={true}
            allowFontScaling={true}
            ellipsizeMode="tail"
            style={
              Object {
                "color": "#CCCCCC",
                "fontSize": 12,
                "marginLeft": 10,
              }
            }
          >
            [MISSING "EN.SCREENS.DRAWER.BUDS" TRANSLATION]
          </Text>
        </View>
      </TouchableHighlight>
      <TouchableHighlight
        activeOpacity={0.85}
        onPress={[Function]}
        underlayColor="black"
      >
        <View
          style={
            Object {
              "borderBottomColor": "#41484E",
              "borderBottomWidth": 1,
              "flexDirection": "row",
              "paddingHorizontal": 10,
              "paddingVertical": 15,
            }
          }
        >
          <Image
            source={1}
          />
          <Text
            accessible={true}
            allowFontScaling={true}
            ellipsizeMode="tail"
            style={
              Object {
                "color": "#CCCCCC",
                "fontSize": 12,
                "marginLeft": 10,
              }
            }
          >
            [MISSING "EN.SCREENS.DRAWER.MIXES" TRANSLATION]
          </Text>
        </View>
      </TouchableHighlight>
      <TouchableHighlight
        activeOpacity={0.85}
        onPress={[Function]}
        underlayColor="black"
      >
        <View
          style={
            Object {
              "borderBottomColor": "#41484E",
              "borderBottomWidth": 1,
              "flexDirection": "row",
              "paddingHorizontal": 10,
              "paddingVertical": 15,
            }
          }
        >
          <Image
            source={1}
          />
          <Text
            accessible={true}
            allowFontScaling={true}
            ellipsizeMode="tail"
            style={
              Object {
                "color": "#CCCCCC",
                "fontSize": 12,
                "marginLeft": 10,
              }
            }
          >
            [MISSING "EN.SCREENS.DRAWER.QUICKID" TRANSLATION]
          </Text>
        </View>
      </TouchableHighlight>
      <TouchableHighlight
        activeOpacity={0.85}
        onPress={[Function]}
        underlayColor="black"
      >
        <View
          style={
            Object {
              "borderBottomColor": "#41484E",
              "borderBottomWidth": 1,
              "flexDirection": "row",
              "paddingHorizontal": 10,
              "paddingVertical": 15,
            }
          }
        >
          <Image
            source={1}
          />
          <Text
            accessible={true}
            allowFontScaling={true}
            ellipsizeMode="tail"
            style={
              Object {
                "color": "#CCCCCC",
                "fontSize": 12,
                "marginLeft": 10,
              }
            }
          >
            [MISSING "EN.SCREENS.DRAWER.LOGOUT" TRANSLATION]
          </Text>
        </View>
      </TouchableHighlight>
    </View>
  </View>
</ScrollView>
`;
