// Jest Snapshot v1, https://goo.gl/fbAQLP

exports[`renders correctly 1`] = `
<SelectableCard
  _id="bud_1_id"
  description=""
  executed={false}
  harvestedAt={2016-08-30T21:00:00.000Z}
  listIndex={0}
  listLength={1}
  mother={
    Object {
      "_id": "57a060870e4dab0011b5f032",
      "name": "HK Master # 1",
    }
  }
  name="bud 1 name"
  owner={
    Object {
      "id": "owner id",
    }
  }
  qr_code="6d8477fe36e156f7bae6ff4a94155ccd639d2bb7"
  reviews={
    Object {
      "edges": Array [],
    }
  }
  selected={false}
  strain={
    Object {
      "_id": "58c1b97acc558700178cab73",
      "name": "Hindu Kush",
    }
  }
>
  <View
    style={
      Array [
        Object {
          "flex": 1,
        },
        Object {
          "alignItems": "center",
          "justifyContent": "center",
        },
      ]
    }
  >
    <RoundedIcon
      object={
        Object {
          "_id": "bud_1_id",
          "description": "",
          "executed": false,
          "harvestedAt": 2016-08-30T21:00:00.000Z,
          "listIndex": 0,
          "listLength": 1,
          "mother": Object {
            "_id": "57a060870e4dab0011b5f032",
            "name": "HK Master # 1",
          },
          "name": "bud 1 name",
          "owner": Object {
            "id": "owner id",
          },
          "qr_code": "6d8477fe36e156f7bae6ff4a94155ccd639d2bb7",
          "reviews": Object {
            "edges": Array [],
          },
          "selected": false,
          "strain": Object {
            "_id": "58c1b97acc558700178cab73",
            "name": "Hindu Kush",
          },
        }
      }
      source={1}
    />
  </View>
  <View
    style={
      Array [
        Object {
          "flex": 3,
          "flexDirection": "column",
        },
        Object {
          "justifyContent": "center",
        },
      ]
    }
  >
    <PlantName
      gender={false}
      name="bud 1 name"
    />
    <Text
      accessible={true}
      allowFontScaling={true}
      ellipsizeMode="tail"
    >
      Hindu Kush
    </Text>
  </View>
  <View
    style={
      Array [
        Object {
          "flex": 1,
        },
        Object {
          "alignItems": "flex-end",
          "justifyContent": "center",
        },
      ]
    }
  >
    <View
      style={
        Object {
          "alignItems": "center",
          "display": "flex",
          "flexDirection": "row",
          "justifyContent": "center",
        }
      }
    >
      <Icon
        name="trophy"
        roundedWhite={false}
        style={
          Object {
            "color": "#3C484A",
            "fontSize": 18,
            "marginLeft": 5,
          }
        }
        visible={true}
      />
      <Text
        accessible={true}
        allowFontScaling={true}
        ellipsizeMode="tail"
        style={
          Object {
            "color": "#3C484A",
            "fontSize": 18,
            "marginLeft": 5,
          }
        }
      >
        0
      </Text>
    </View>
    <Component
      action="format"
      args={
        Array [
          "L",
        ]
      }
      date={2016-08-30T21:00:00.000Z}
      style={
        Object {
          "color": "#95989A",
          "fontSize": 11,
          "top": 10,
        }
      }
    />
  </View>
</SelectableCard>
`;
