// Jest Snapshot v1, https://goo.gl/fbAQLP

exports[`renders correctly 1`] = `
<RegisterController
  dispatch={[Function]}
  session={
    Object {
      "birthdate": 1980-02-27T10:00:00.000Z,
      "email": "joe@example.com",
      "name": "Joe",
      "nick": "joe",
      "password": "mike",
    }
  }
/>
`;
