// Jest Snapshot v1, https://goo.gl/fbAQLP

exports[`renders correctly 1`] = `
<View
  style={
    Array [
      Object {
        "backgroundColor": 10,
      },
      Object {
        "alignItems": "center",
        "padding": 10,
      },
    ]
  }
>
  <Text
    accessible={true}
    allowFontScaling={true}
    ellipsizeMode="tail"
    style={
      Array [
        Object {
          "color": "#95989A",
          "fontSize": 10,
        },
        Object {
          "backgroundColor": 10,
        },
      ]
    }
  >
    FEVEREIRO 7, 2017
  </Text>
</View>
`;
