<!-- Generated by IcoMoon.io -->
<svg version="1.1" xmlns="http://www.w3.org/2000/svg" width="32" height="32" viewBox="0 0 32 32">
<title>alert2</title>
<path d="M31.433 25.008l-13.696-23.969c-0.356-0.623-1.019-1.008-1.736-1.008s-1.38 0.385-1.736 1.008l-13.696 23.969c-0.354 0.619-0.351 1.38 0.007 1.996s1.017 0.996 1.73 0.996h27.393c0.713 0 1.372-0.38 1.73-0.996s0.36-1.377 0.007-1.996zM18 24h-4v-4h4v4zM18 18h-4v-8h4v8z"></path>
</svg>
