<!-- Generated by IcoMoon.io -->
<svg version="1.1" xmlns="http://www.w3.org/2000/svg" width="16" height="32" viewBox="0 0 16 32">
<title>arrow-load2</title>
<path d="M15.177 30.7c-0.032 0-0.070 0-0.108 0-7.557 0-13.69-6.096-13.749-13.639 0.059-7.051 5.416-12.827 12.278-13.548l-0.864 0.905c-0.122 0.114-0.198 0.275-0.198 0.455s0.076 0.341 0.198 0.455c0.118 0.121 0.281 0.195 0.462 0.195s0.345-0.075 0.462-0.195l2.145-2.112c0.122-0.114 0.198-0.275 0.198-0.455s-0.076-0.341-0.198-0.455l-2.145-2.112c-0.117-0.12-0.281-0.195-0.462-0.195s-0.345 0.075-0.462 0.195c-0.122 0.114-0.198 0.276-0.198 0.455s0.076 0.341 0.198 0.455l1.089 1.072c-7.728 0.646-13.762 7.049-13.822 14.874-0 8.257 6.796 14.95 15.177 14.95 0.359 0 0.65-0.291 0.65-0.65s-0.291-0.65-0.65-0.65z"></path>
</svg>
