<svg xmlns="http://www.w3.org/2000/svg" viewBox="1479.909 -758.545 35 70">
  <defs>
    <style>
      .cls-1 {
        fill: #a7e1c7;
      }
    </style>
  </defs>
  <path id="Path_6308" data-name="Path 6308" class="cls-1" d="M42.7,69.157A30.077,30.077,0,0,1,12.387,39.31,30.034,30.034,0,0,1,39.376,9.675l-2.021,1.99a1.36,1.36,0,0,0,0,1.99,1.41,1.41,0,0,0,2.021,0l4.691-4.619a1.36,1.36,0,0,0,0-1.99L39.376,2.426a1.41,1.41,0,0,0-2.021,0,1.36,1.36,0,0,0,0,1.99l2.381,2.345A32.9,32.9,0,0,0,9.5,39.31C9.5,57.36,24.366,72,42.7,72a1.421,1.421,0,1,0,0-2.843Z" transform="translate(1470.409 -760.545)"/>
</svg>
