<!-- Generated by IcoMoon.io -->
<svg version="1.1" xmlns="http://www.w3.org/2000/svg" width="43" height="32" viewBox="0 0 43 32">
<title>budbuds2</title>
<path d="M42.11 7.597c-1.754-1.689-8.972 1.481-14.166 5.256-1.079-6.166-4.047-12.981-6.679-12.844-2.37 0-5.464 6.75-6.747 12.85-5.191-3.769-12.071-6.951-13.961-5.262-2.225 1.751 2.631 12.85 7.286 17.719 3.354 3.832 8.137 6.341 13.509 6.69 5.403-0.404 10.095-2.903 13.371-6.667 4.761-4.696 9.614-15.6 7.386-17.742z"></path>
</svg>
