<?xml version="1.0" encoding="UTF-8"?>
<svg width="20px" height="9px" viewBox="0 0 20 9" version="1.1" xmlns="http://www.w3.org/2000/svg" xmlns:xlink="http://www.w3.org/1999/xlink">
    <!-- Generator: Sketch 44.1 (41455) - http://www.bohemiancoding.com/sketch -->
    <title>icon new leaf</title>
    <desc>Created with Sketch.</desc>
    <defs></defs>
    <g id="Assets" stroke="none" stroke-width="1" fill="none" fill-rule="evenodd">
        <g id="icon-new-leaf" transform="translate(-2.000000, -7.000000)" fill="#3C484A">
            <path d="M13.4768135,9.0054834 C13.4701095,9.00511859 13.4633463,9.00481212 13.4565246,9.00456354 C13.4622778,9.00795516 13.4680324,9.0113538 13.4737886,9.01475944 C13.4747959,9.01166606 13.4758043,9.00857404 13.4768135,9.0054834 Z M11.294411,14.6039875 C10.3931277,15.4150089 9.24334693,15.9100233 8.02151495,16.0004548 C6.5492303,15.9077186 5.17522482,15.2298679 4.20572867,14.117978 C2.89657815,12.7488282 1.53076166,9.62720002 2.15658728,9.1347061 C2.68824739,8.65971195 4.62322353,9.55470092 6.08320552,10.6146878 C6.4440344,8.89887567 7.31402368,7.00056575 7.98068212,7.00056575 C8.4277969,6.9774044 8.90959363,7.66796117 9.28784011,8.60073926 C8.44472233,9.77248488 9.74151554,12.8498578 11.294411,14.6039875 Z" id="Combined-Shape"></path>
            <path d="M21.8431098,9.1347061 C21.3497826,8.65971195 19.3198076,9.55136763 17.8589923,10.6130212 C17.5556627,8.87887592 16.720673,6.96223289 15.9806821,7.00056575 C15.3140237,7.00056575 14.4440344,8.89887567 14.0832055,10.6146878 C12.6232235,9.55470092 10.6882474,8.65971195 10.1565873,9.1347061 C9.53076166,9.62720002 10.8965782,12.7488282 12.2057287,14.117978 C13.1752248,15.2298679 14.5492303,15.9077186 16.021515,16.0004548 C17.4711497,15.8931629 18.8193616,15.2163606 19.7714687,14.117978 C21.1047856,12.8038275 22.4697688,9.73719867 21.8431098,9.1347061 Z" id="Path_6378-path"></path>
        </g>
    </g>
</svg>