<!-- Generated by IcoMoon.io -->
<svg version="1.1" xmlns="http://www.w3.org/2000/svg" width="29" height="32" viewBox="0 0 29 32">
<title>flower-type2</title>
<path fill="#3c484a" d="M14.564 0c-0.681 0-1.156 0.413-1.452 0.789s-0.506 0.8-0.702 1.295c-0.392 0.989-0.707 2.268-0.981 3.746-0.389 2.102-0.517 4.675-0.663 7.156-0.902-1.203-1.802-2.515-2.656-3.436-0.713-0.769-1.372-1.397-2.002-1.845-0.315-0.224-0.62-0.407-0.99-0.528-0.363-0.118-0.888-0.167-1.378 0.113-0.575 0.332-0.769 0.914-0.82 1.347-0.051 0.439 0 0.859 0.074 1.326 0.163 0.934 0.512 2.042 0.981 3.275 0.73 1.919 1.861 4.061 2.961 6.083-0.921-0.294-1.895-0.689-2.703-0.863-0.806-0.174-1.515-0.282-2.146-0.288-0.315-0.002-0.61 0.016-0.933 0.109s-0.758 0.3-1.003 0.789l-0.022 0.026-0.022 0.031c-0.246 0.573-0.054 1.094 0.127 1.417s0.407 0.569 0.667 0.824c0.521 0.511 1.207 1.027 2.019 1.565 1.253 0.831 2.829 1.605 4.339 2.329-0.114 0.057-0.277 0.103-0.384 0.161-0.382 0.206-0.708 0.404-1.003 0.663-0.147 0.13-0.292 0.271-0.427 0.501-0.134 0.227-0.258 0.619-0.147 1.042 0.154 0.578 0.604 0.818 0.868 0.916 0.267 0.099 0.482 0.125 0.715 0.144 0.466 0.037 0.983 0.013 1.561-0.044 1.152-0.113 2.521-0.365 3.698-0.676l0.022-0.004c0.080-0.020 0.154-0.065 0.236-0.087v2.045c0.027 1.12 0.948 2.042 2.067 2.071 1.159 0.031 2.153-0.899 2.193-2.058v-2.111c0.069 0.020 0.134 0.056 0.205 0.074 0.001 0 0-0 0 0 1.192 0.349 2.572 0.622 3.737 0.737 0.583 0.058 1.102 0.080 1.583 0.031 0.24-0.025 0.47-0.060 0.746-0.179 0.269-0.116 0.674-0.405 0.811-0.924 0.107-0.421-0.022-0.809-0.143-1.033-0.136-0.231-0.28-0.373-0.428-0.501-0.294-0.258-0.621-0.456-1.003-0.663-0.107-0.058-0.269-0.104-0.384-0.161 1.507-0.725 3.080-1.502 4.33-2.324 0.811-0.533 1.5-1.046 2.019-1.544 0.26-0.249 0.48-0.487 0.663-0.802 0.181-0.311 0.376-0.834 0.123-1.413-0.226-0.508-0.677-0.745-0.999-0.837-0.328-0.094-0.62-0.11-0.933-0.105-0.625 0.011-1.334 0.128-2.137 0.305s-1.758 0.554-2.669 0.842c1.094-2.017 2.217-4.15 2.939-6.061 0.464-1.229 0.81-2.334 0.977-3.266 0.083-0.466 0.13-0.884 0.087-1.317s-0.185-1.004-0.75-1.369l-0.027-0.018-0.031-0.018c-0.49-0.277-1.012-0.219-1.387-0.1s-0.685 0.303-1.003 0.528c-0.636 0.449-1.296 1.080-2.006 1.849-0.849 0.92-1.744 2.227-2.638 3.427-0.156-2.477-0.293-5.051-0.676-7.151-0.269-1.476-0.582-2.748-0.968-3.737-0.192-0.495-0.395-0.922-0.689-1.299s-0.771-0.794-1.452-0.794zM14.564 2.773c0.025 0.059 0.040 0.064 0.065 0.131 0.293 0.751 0.596 1.933 0.85 3.327 0.508 2.789 0.852 6.45 0.916 9.694l0.069 3.558 1.975-2.961c1.347-2.020 2.898-4.049 4.195-5.455 0.456-0.494 0.804-0.777 1.16-1.081-0.15 0.675-0.377 1.491-0.754 2.49-0.87 2.303-2.243 5.145-3.61 7.435l0.065-0.096c-0.27 0.359-0.428 0.67-0.493 0.767l-1.997 2.983 3.34-1.326c1.681-0.667 3.556-1.257 4.993-1.574 0-0.002 0.022-0.002 0.022-0.004-0.181 0.129-0.263 0.219-0.467 0.353-1.486 0.978-3.51 2.071-5.268 2.826l-3.532 1.417c-0.022-0.009-0.045-0.016-0.065-0.026l-1.391-0.658v-0.039l-0.045 0.022-0.161-0.079v0.153l-1.391 0.663c-0.022 0.009-0.042 0.013-0.060 0.022l-3.563-1.426c-1.754-0.75-3.769-1.834-5.246-2.813-0.262-0.173-0.375-0.294-0.597-0.458 0.078 0.016 0.112 0.009 0.192 0.026 1.434 0.309 3.307 0.901 5.010 1.6l3.868 1.587-2.56-3.305c-0.132-0.169-0.249-0.349-0.345-0.541l-0.022-0.039-0.022-0.035c-1.368-2.291-2.758-5.155-3.637-7.465-0.377-0.992-0.597-1.792-0.746-2.459 0.356 0.305 0.703 0.589 1.16 1.081 1.305 1.408 2.867 3.438 4.212 5.455l2.010 3.013 0.036-3.624c0.031-3.235 0.373-6.89 0.889-9.676 0.258-1.393 0.571-2.577 0.868-3.327 0.027-0.069 0.042-0.074 0.069-0.135z"></path>
</svg>
