<!-- Generated by IcoMoon.io -->
<svg version="1.1" xmlns="http://www.w3.org/2000/svg" width="32" height="32" viewBox="0 0 32 32">
<title>flower2</title>
<path fill="#3c484a" d="M19.545 14.347c0.587-1.448-0.484-3.344-1.613-4.541 0.437-1.585 0.496-3.763-0.7-4.767s-3.333-0.573-4.817 0.133c-1.372-0.905-3.424-1.637-4.751-0.811s-1.573 2.991-1.364 4.623c-1.285 1.025-2.612 2.749-2.235 4.268s2.357 2.421 3.973 2.725c0.577 1.54 1.811 3.333 3.369 3.445 1.236-0.072 2.307-0.719 2.957-1.676 1.478 1.76 2.641 3.849 3.378 6.13-0.927-1.305-2.923-2.543-7.076-2.543 0 5.54 4.056 6.667 6.667 6.667h4.267c-0.131-4.525-1.764-8.645-4.415-11.903 1.048-0.199 1.881-0.854 2.351-1.732zM13.711 14.053c-0.491 0.311-1.088 0.495-1.728 0.495-1.803 0-3.264-1.461-3.264-3.264s1.461-3.264 3.264-3.264c1.163 0 2.184 0.608 2.762 1.523 0.318 0.504 0.503 1.101 0.503 1.741 0 1.162-0.608 2.183-1.523 2.761zM21.36 18.997c1.364 2.597 2.186 5.667 2.24 8.923 4.4-3.144 4.4-8.979 4.4-14.587 0 0-4.895 1.383-6.64 5.664z"></path>
</svg>
