<!-- Generated by IcoMoon.io -->
<svg version="1.1" xmlns="http://www.w3.org/2000/svg" width="43" height="32" viewBox="0 0 43 32">
<title>vegetating2</title>
<path fill="#3c484a" d="M21.333 30.468c11.782 0 21.333-9.549 21.333-21.333-11.782 0-21.333 9.553-21.333 21.333zM21.333 14.414c-7.961-0-14.414-6.452-14.414-14.414 7.951 0 14.397 6.438 14.414 14.383 0.017-7.946 6.463-14.383 14.414-14.383 0 7.962-6.453 14.414-14.414 14.414zM0 9.135c0 11.785 9.551 21.333 21.333 21.333-0-11.78-9.551-21.333-21.333-21.333z"></path>
</svg>
