// Jest Snapshot v1, https://goo.gl/fbAQLP

exports[`AutoSelectFactory renders correctly 1`] = `
<RCTScrollView
  alwaysBounceHorizontal={undefined}
  alwaysBounceVertical={true}
  contentContainerStyle={
    Object {
      "paddingBottom": 40,
    }
  }
  contentInset={Object {}}
  enableAutoAutomaticScroll={true}
  enableResetScrollToCoords={true}
  extraHeight={75}
  extraScrollHeight={0}
  keyboardDismissMode="interactive"
  keyboardOpeningTime={250}
  keyboardShouldPersistTaps="handled"
  onContentSizeChange={null}
  onMomentumScrollBegin={[Function]}
  onMomentumScrollEnd={[Function]}
  onResponderGrant={[Function]}
  onResponderReject={[Function]}
  onResponderRelease={[Function]}
  onResponderTerminate={undefined}
  onResponderTerminationRequest={[Function]}
  onScroll={[Function]}
  onScrollBeginDrag={[Function]}
  onScrollEndDrag={[Function]}
  onScrollShouldSetResponder={[Function]}
  onStartShouldSetResponder={[Function]}
  onStartShouldSetResponderCapture={[Function]}
  onTouchEnd={[Function]}
  onTouchMove={[Function]}
  onTouchStart={[Function]}
  scrollEventThrottle={0}
  sendMomentumEvents={false}
  showsVerticalScrollIndicator={true}
  style={
    Array [
      Object {
        "flexDirection": "column",
        "flexGrow": 1,
        "flexShrink": 1,
        "overflow": "scroll",
      },
      Object {
        "backgroundColor": "#F1F1F1",
      },
    ]
  }
>
  <RCTScrollContentView
    collapsable={false}
    removeClippedSubviews={undefined}
    style={
      Array [
        undefined,
        Object {
          "paddingBottom": 40,
        },
      ]
    }
  >
    <View
      style={
        Array [
          Object {
            "flex": 1,
            "paddingBottom": 40,
            "paddingHorizontal": 20,
            "paddingTop": 20,
          },
          undefined,
        ]
      }
    >
      <View
        style={undefined}
      >
        <View
          style={
            Object {
              "flex": 1,
              "justifyContent": "flex-start",
            }
          }
        >
          <View
            style={
              Array [
                Object {},
                undefined,
              ]
            }
          >
            <Text
              accessible={true}
              allowFontScaling={true}
              ellipsizeMode="tail"
              style={
                Array [
                  Object {
                    "color": "#95989A",
                    "fontSize": 10,
                    "fontWeight": "bold",
                    "marginBottom": 1,
                    "marginLeft": 0,
                    "marginRight": 0,
                    "marginTop": 15,
                  },
                  undefined,
                  undefined,
                ]
              }
            >
              [MISSING "EN.FORMS.TASKTYPE.LABEL" TRANSLATION]
            </Text>
          </View>
          <View
            style={Object {}}
          >
            <Modal
              animationType="slide"
              hardwareAccelerated={false}
              onRequestClose={[Function]}
              transparent={true}
              visible={false}
            >
              <View
                style={
                  Array [
                    Object {
                      "backgroundColor": "rgba(0,0,0,0.7)",
                      "height": 1334,
                      "width": 750,
                    },
                    Object {},
                  ]
                }
              >
                <View
                  style={
                    Object {
                      "backgroundColor": "rgba(255,255,255,0.8)",
                      "borderRadius": 5,
                      "height": 400,
                      "left": 75,
                      "top": 467,
                      "width": 600,
                    }
                  }
                >
                  <RCTScrollView
                    alwaysBounceHorizontal={undefined}
                    alwaysBounceVertical={true}
                    keyboardShouldPersistTaps={true}
                    onContentSizeChange={null}
                    onMomentumScrollBegin={[Function]}
                    onMomentumScrollEnd={[Function]}
                    onResponderGrant={[Function]}
                    onResponderReject={[Function]}
                    onResponderRelease={[Function]}
                    onResponderTerminate={undefined}
                    onResponderTerminationRequest={[Function]}
                    onScroll={[Function]}
                    onScrollBeginDrag={[Function]}
                    onScrollEndDrag={[Function]}
                    onScrollShouldSetResponder={[Function]}
                    onStartShouldSetResponder={[Function]}
                    onStartShouldSetResponderCapture={[Function]}
                    onTouchEnd={[Function]}
                    onTouchMove={[Function]}
                    onTouchStart={[Function]}
                    scrollEventThrottle={undefined}
                    sendMomentumEvents={false}
                    style={
                      Array [
                        Object {
                          "flexDirection": "column",
                          "flexGrow": 1,
                          "flexShrink": 1,
                          "overflow": "scroll",
                        },
                        undefined,
                      ]
                    }
                  >
                    <RCTScrollContentView
                      collapsable={false}
                      removeClippedSubviews={undefined}
                      style={
                        Array [
                          undefined,
                          undefined,
                        ]
                      }
                    >
                      <View
                        style={
                          Object {
                            "paddingHorizontal": 10,
                          }
                        }
                      >
                        <View
                          accessibilityComponentType={undefined}
                          accessibilityLabel={undefined}
                          accessibilityTraits={undefined}
                          accessible={true}
                          hitSlop={undefined}
                          isTVSelectable={true}
                          onLayout={undefined}
                          onResponderGrant={[Function]}
                          onResponderMove={[Function]}
                          onResponderRelease={[Function]}
                          onResponderTerminate={[Function]}
                          onResponderTerminationRequest={[Function]}
                          onStartShouldSetResponder={[Function]}
                          style={
                            Object {
                              "opacity": 1,
                            }
                          }
                          testID={undefined}
                          tvParallaxProperties={undefined}
                        >
                          <View
                            style={
                              Array [
                                Object {
                                  "borderBottomColor": "#ccc",
                                  "borderBottomWidth": 1,
                                  "padding": 8,
                                },
                                Object {},
                              ]
                            }
                          >
                            <Text
                              accessible={true}
                              allowFontScaling={true}
                              ellipsizeMode="tail"
                              style={
                                Array [
                                  Object {
                                    "color": "rgba(0,118,255,0.9)",
                                    "fontSize": 16,
                                    "textAlign": "center",
                                  },
                                  Object {},
                                ]
                              }
                            >
                              [missing "en.null.ENVIRONMENT" translation]
                            </Text>
                          </View>
                        </View>
                        <View
                          accessibilityComponentType={undefined}
                          accessibilityLabel={undefined}
                          accessibilityTraits={undefined}
                          accessible={true}
                          hitSlop={undefined}
                          isTVSelectable={true}
                          onLayout={undefined}
                          onResponderGrant={[Function]}
                          onResponderMove={[Function]}
                          onResponderRelease={[Function]}
                          onResponderTerminate={[Function]}
                          onResponderTerminationRequest={[Function]}
                          onStartShouldSetResponder={[Function]}
                          style={
                            Object {
                              "opacity": 1,
                            }
                          }
                          testID={undefined}
                          tvParallaxProperties={undefined}
                        >
                          <View
                            style={
                              Array [
                                Object {
                                  "borderBottomColor": "#ccc",
                                  "borderBottomWidth": 1,
                                  "padding": 8,
                                },
                                Object {},
                              ]
                            }
                          >
                            <Text
                              accessible={true}
                              allowFontScaling={true}
                              ellipsizeMode="tail"
                              style={
                                Array [
                                  Object {
                                    "color": "rgba(0,118,255,0.9)",
                                    "fontSize": 16,
                                    "textAlign": "center",
                                  },
                                  Object {},
                                ]
                              }
                            >
                              [missing "en.null.GERMINATION" translation]
                            </Text>
                          </View>
                        </View>
                        <View
                          accessibilityComponentType={undefined}
                          accessibilityLabel={undefined}
                          accessibilityTraits={undefined}
                          accessible={true}
                          hitSlop={undefined}
                          isTVSelectable={true}
                          onLayout={undefined}
                          onResponderGrant={[Function]}
                          onResponderMove={[Function]}
                          onResponderRelease={[Function]}
                          onResponderTerminate={[Function]}
                          onResponderTerminationRequest={[Function]}
                          onStartShouldSetResponder={[Function]}
                          style={
                            Object {
                              "opacity": 1,
                            }
                          }
                          testID={undefined}
                          tvParallaxProperties={undefined}
                        >
                          <View
                            style={
                              Array [
                                Object {
                                  "borderBottomColor": "#ccc",
                                  "borderBottomWidth": 1,
                                  "padding": 8,
                                },
                                Object {},
                              ]
                            }
                          >
                            <Text
                              accessible={true}
                              allowFontScaling={true}
                              ellipsizeMode="tail"
                              style={
                                Array [
                                  Object {
                                    "color": "rgba(0,118,255,0.9)",
                                    "fontSize": 16,
                                    "textAlign": "center",
                                  },
                                  Object {},
                                ]
                              }
                            >
                              [missing "en.null.CONTAINER" translation]
                            </Text>
                          </View>
                        </View>
                        <View
                          accessibilityComponentType={undefined}
                          accessibilityLabel={undefined}
                          accessibilityTraits={undefined}
                          accessible={true}
                          hitSlop={undefined}
                          isTVSelectable={true}
                          onLayout={undefined}
                          onResponderGrant={[Function]}
                          onResponderMove={[Function]}
                          onResponderRelease={[Function]}
                          onResponderTerminate={[Function]}
                          onResponderTerminationRequest={[Function]}
                          onStartShouldSetResponder={[Function]}
                          style={
                            Object {
                              "opacity": 1,
                            }
                          }
                          testID={undefined}
                          tvParallaxProperties={undefined}
                        >
                          <View
                            style={
                              Array [
                                Object {
                                  "borderBottomColor": "#ccc",
                                  "borderBottomWidth": 1,
                                  "padding": 8,
                                },
                                Object {},
                              ]
                            }
                          >
                            <Text
                              accessible={true}
                              allowFontScaling={true}
                              ellipsizeMode="tail"
                              style={
                                Array [
                                  Object {
                                    "color": "rgba(0,118,255,0.9)",
                                    "fontSize": 16,
                                    "textAlign": "center",
                                  },
                                  Object {},
                                ]
                              }
                            >
                              [missing "en.null.MEDIUM" translation]
                            </Text>
                          </View>
                        </View>
                        <View
                          accessibilityComponentType={undefined}
                          accessibilityLabel={undefined}
                          accessibilityTraits={undefined}
                          accessible={true}
                          hitSlop={undefined}
                          isTVSelectable={true}
                          onLayout={undefined}
                          onResponderGrant={[Function]}
                          onResponderMove={[Function]}
                          onResponderRelease={[Function]}
                          onResponderTerminate={[Function]}
                          onResponderTerminationRequest={[Function]}
                          onStartShouldSetResponder={[Function]}
                          style={
                            Object {
                              "opacity": 1,
                            }
                          }
                          testID={undefined}
                          tvParallaxProperties={undefined}
                        >
                          <View
                            style={
                              Array [
                                Object {
                                  "borderBottomColor": "#ccc",
                                  "borderBottomWidth": 1,
                                  "padding": 8,
                                },
                                Object {},
                              ]
                            }
                          >
                            <Text
                              accessible={true}
                              allowFontScaling={true}
                              ellipsizeMode="tail"
                              style={
                                Array [
                                  Object {
                                    "color": "rgba(0,118,255,0.9)",
                                    "fontSize": 16,
                                    "textAlign": "center",
                                  },
                                  Object {},
                                ]
                              }
                            >
                              [missing "en.null.PHOTOPERIOD" translation]
                            </Text>
                          </View>
                        </View>
                        <View
                          accessibilityComponentType={undefined}
                          accessibilityLabel={undefined}
                          accessibilityTraits={undefined}
                          accessible={true}
                          hitSlop={undefined}
                          isTVSelectable={true}
                          onLayout={undefined}
                          onResponderGrant={[Function]}
                          onResponderMove={[Function]}
                          onResponderRelease={[Function]}
                          onResponderTerminate={[Function]}
                          onResponderTerminationRequest={[Function]}
                          onStartShouldSetResponder={[Function]}
                          style={
                            Object {
                              "opacity": 1,
                            }
                          }
                          testID={undefined}
                          tvParallaxProperties={undefined}
                        >
                          <View
                            style={
                              Array [
                                Object {
                                  "borderBottomColor": "#ccc",
                                  "borderBottomWidth": 1,
                                  "padding": 8,
                                },
                                Object {},
                              ]
                            }
                          >
                            <Text
                              accessible={true}
                              allowFontScaling={true}
                              ellipsizeMode="tail"
                              style={
                                Array [
                                  Object {
                                    "color": "rgba(0,118,255,0.9)",
                                    "fontSize": 16,
                                    "textAlign": "center",
                                  },
                                  Object {},
                                ]
                              }
                            >
                              [missing "en.null.ENVIRONMENT_TEMPERATURE" translation]
                            </Text>
                          </View>
                        </View>
                        <View
                          accessibilityComponentType={undefined}
                          accessibilityLabel={undefined}
                          accessibilityTraits={undefined}
                          accessible={true}
                          hitSlop={undefined}
                          isTVSelectable={true}
                          onLayout={undefined}
                          onResponderGrant={[Function]}
                          onResponderMove={[Function]}
                          onResponderRelease={[Function]}
                          onResponderTerminate={[Function]}
                          onResponderTerminationRequest={[Function]}
                          onStartShouldSetResponder={[Function]}
                          style={
                            Object {
                              "opacity": 1,
                            }
                          }
                          testID={undefined}
                          tvParallaxProperties={undefined}
                        >
                          <View
                            style={
                              Array [
                                Object {
                                  "borderBottomColor": "#ccc",
                                  "borderBottomWidth": 1,
                                  "padding": 8,
                                },
                                Object {},
                              ]
                            }
                          >
                            <Text
                              accessible={true}
                              allowFontScaling={true}
                              ellipsizeMode="tail"
                              style={
                                Array [
                                  Object {
                                    "color": "rgba(0,118,255,0.9)",
                                    "fontSize": 16,
                                    "textAlign": "center",
                                  },
                                  Object {},
                                ]
                              }
                            >
                              [missing "en.null.AIR_HUMIDITY" translation]
                            </Text>
                          </View>
                        </View>
                        <View
                          accessibilityComponentType={undefined}
                          accessibilityLabel={undefined}
                          accessibilityTraits={undefined}
                          accessible={true}
                          hitSlop={undefined}
                          isTVSelectable={true}
                          onLayout={undefined}
                          onResponderGrant={[Function]}
                          onResponderMove={[Function]}
                          onResponderRelease={[Function]}
                          onResponderTerminate={[Function]}
                          onResponderTerminationRequest={[Function]}
                          onStartShouldSetResponder={[Function]}
                          style={
                            Object {
                              "opacity": 1,
                            }
                          }
                          testID={undefined}
                          tvParallaxProperties={undefined}
                        >
                          <View
                            style={
                              Array [
                                Object {
                                  "borderBottomColor": "#ccc",
                                  "borderBottomWidth": 1,
                                  "padding": 8,
                                },
                                Object {},
                              ]
                            }
                          >
                            <Text
                              accessible={true}
                              allowFontScaling={true}
                              ellipsizeMode="tail"
                              style={
                                Array [
                                  Object {
                                    "color": "rgba(0,118,255,0.9)",
                                    "fontSize": 16,
                                    "textAlign": "center",
                                  },
                                  Object {},
                                ]
                              }
                            >
                              [missing "en.null.WATER" translation]
                            </Text>
                          </View>
                        </View>
                        <View
                          accessibilityComponentType={undefined}
                          accessibilityLabel={undefined}
                          accessibilityTraits={undefined}
                          accessible={true}
                          hitSlop={undefined}
                          isTVSelectable={true}
                          onLayout={undefined}
                          onResponderGrant={[Function]}
                          onResponderMove={[Function]}
                          onResponderRelease={[Function]}
                          onResponderTerminate={[Function]}
                          onResponderTerminationRequest={[Function]}
                          onStartShouldSetResponder={[Function]}
                          style={
                            Object {
                              "opacity": 1,
                            }
                          }
                          testID={undefined}
                          tvParallaxProperties={undefined}
                        >
                          <View
                            style={
                              Array [
                                Object {
                                  "borderBottomColor": "#ccc",
                                  "borderBottomWidth": 1,
                                  "padding": 8,
                                },
                                Object {},
                              ]
                            }
                          >
                            <Text
                              accessible={true}
                              allowFontScaling={true}
                              ellipsizeMode="tail"
                              style={
                                Array [
                                  Object {
                                    "color": "rgba(0,118,255,0.9)",
                                    "fontSize": 16,
                                    "textAlign": "center",
                                  },
                                  Object {},
                                ]
                              }
                            >
                              [missing "en.null.PESTICIDE" translation]
                            </Text>
                          </View>
                        </View>
                        <View
                          accessibilityComponentType={undefined}
                          accessibilityLabel={undefined}
                          accessibilityTraits={undefined}
                          accessible={true}
                          hitSlop={undefined}
                          isTVSelectable={true}
                          onLayout={undefined}
                          onResponderGrant={[Function]}
                          onResponderMove={[Function]}
                          onResponderRelease={[Function]}
                          onResponderTerminate={[Function]}
                          onResponderTerminationRequest={[Function]}
                          onStartShouldSetResponder={[Function]}
                          style={
                            Object {
                              "opacity": 1,
                            }
                          }
                          testID={undefined}
                          tvParallaxProperties={undefined}
                        >
                          <View
                            style={
                              Array [
                                Object {
                                  "borderBottomColor": "#ccc",
                                  "borderBottomWidth": 1,
                                  "padding": 8,
                                },
                                Object {},
                              ]
                            }
                          >
                            <Text
                              accessible={true}
                              allowFontScaling={true}
                              ellipsizeMode="tail"
                              style={
                                Array [
                                  Object {
                                    "color": "rgba(0,118,255,0.9)",
                                    "fontSize": 16,
                                    "textAlign": "center",
                                  },
                                  Object {},
                                ]
                              }
                            >
                              [missing "en.null.HARVEST" translation]
                            </Text>
                          </View>
                        </View>
                        <View
                          accessibilityComponentType={undefined}
                          accessibilityLabel={undefined}
                          accessibilityTraits={undefined}
                          accessible={true}
                          hitSlop={undefined}
                          isTVSelectable={true}
                          onLayout={undefined}
                          onResponderGrant={[Function]}
                          onResponderMove={[Function]}
                          onResponderRelease={[Function]}
                          onResponderTerminate={[Function]}
                          onResponderTerminationRequest={[Function]}
                          onStartShouldSetResponder={[Function]}
                          style={
                            Object {
                              "opacity": 1,
                            }
                          }
                          testID={undefined}
                          tvParallaxProperties={undefined}
                        >
                          <View
                            style={
                              Array [
                                Object {
                                  "borderBottomColor": "#ccc",
                                  "borderBottomWidth": 1,
                                  "padding": 8,
                                },
                                Object {},
                              ]
                            }
                          >
                            <Text
                              accessible={true}
                              allowFontScaling={true}
                              ellipsizeMode="tail"
                              style={
                                Array [
                                  Object {
                                    "color": "rgba(0,118,255,0.9)",
                                    "fontSize": 16,
                                    "textAlign": "center",
                                  },
                                  Object {},
                                ]
                              }
                            >
                              [missing "en.null.DRY" translation]
                            </Text>
                          </View>
                        </View>
                        <View
                          accessibilityComponentType={undefined}
                          accessibilityLabel={undefined}
                          accessibilityTraits={undefined}
                          accessible={true}
                          hitSlop={undefined}
                          isTVSelectable={true}
                          onLayout={undefined}
                          onResponderGrant={[Function]}
                          onResponderMove={[Function]}
                          onResponderRelease={[Function]}
                          onResponderTerminate={[Function]}
                          onResponderTerminationRequest={[Function]}
                          onStartShouldSetResponder={[Function]}
                          style={
                            Object {
                              "opacity": 1,
                            }
                          }
                          testID={undefined}
                          tvParallaxProperties={undefined}
                        >
                          <View
                            style={
                              Array [
                                Object {
                                  "borderBottomColor": "#ccc",
                                  "borderBottomWidth": 1,
                                  "padding": 8,
                                },
                                Object {},
                              ]
                            }
                          >
                            <Text
                              accessible={true}
                              allowFontScaling={true}
                              ellipsizeMode="tail"
                              style={
                                Array [
                                  Object {
                                    "color": "rgba(0,118,255,0.9)",
                                    "fontSize": 16,
                                    "textAlign": "center",
                                  },
                                  Object {},
                                ]
                              }
                            >
                              [missing "en.null.CURE" translation]
                            </Text>
                          </View>
                        </View>
                      </View>
                    </RCTScrollContentView>
                  </RCTScrollView>
                </View>
                <View
                  style={
                    Object {
                      "left": 75,
                      "top": 477,
                    }
                  }
                >
                  <View
                    accessibilityComponentType={undefined}
                    accessibilityLabel={undefined}
                    accessibilityTraits={undefined}
                    accessible={true}
                    hitSlop={undefined}
                    isTVSelectable={true}
                    onLayout={undefined}
                    onResponderGrant={[Function]}
                    onResponderMove={[Function]}
                    onResponderRelease={[Function]}
                    onResponderTerminate={[Function]}
                    onResponderTerminationRequest={[Function]}
                    onStartShouldSetResponder={[Function]}
                    style={
                      Object {
                        "opacity": 1,
                      }
                    }
                    testID={undefined}
                    tvParallaxProperties={undefined}
                  >
                    <View
                      style={
                        Array [
                          Object {
                            "backgroundColor": "rgba(255,255,255,0.8)",
                            "borderRadius": 5,
                            "padding": 8,
                            "width": 600,
                          },
                          Object {},
                        ]
                      }
                    >
                      <Text
                        accessible={true}
                        allowFontScaling={true}
                        ellipsizeMode="tail"
                        style={
                          Array [
                            Object {
                              "color": "#333",
                              "fontSize": 16,
                              "textAlign": "center",
                            },
                            Object {},
                          ]
                        }
                      >
                        cancel
                      </Text>
                    </View>
                  </View>
                </View>
              </View>
            </Modal>
            <View
              accessibilityComponentType={undefined}
              accessibilityLabel={undefined}
              accessibilityTraits={undefined}
              accessible={true}
              hitSlop={undefined}
              isTVSelectable={true}
              onLayout={undefined}
              onResponderGrant={[Function]}
              onResponderMove={[Function]}
              onResponderRelease={[Function]}
              onResponderTerminate={[Function]}
              onResponderTerminationRequest={[Function]}
              onStartShouldSetResponder={[Function]}
              style={
                Object {
                  "opacity": 1,
                }
              }
              testID={undefined}
              tvParallaxProperties={undefined}
            >
              <Text
                accessible={true}
                allowFontScaling={true}
                ellipsizeMode="tail"
                onPress={null}
                style={
                  Array [
                    Object {
                      "flex": 1,
                      "paddingBottom": 8,
                      "paddingTop": 8,
                    },
                  ]
                }
              >
                Select me!
              </Text>
            </View>
          </View>
        </View>
        <View
          style={
            Object {
              "backgroundColor": "#CCCCCC",
              "flex": 1,
              "height": 1,
            }
          }
        />
      </View>
    </View>
  </RCTScrollContentView>
</RCTScrollView>
`;
