// Jest Snapshot v1, https://goo.gl/fbAQLP

exports[`should render correctly 1`] = `
<View
  style={undefined}
>
  <View>
    <View
      accessibilityComponentType={undefined}
      accessibilityLabel={undefined}
      accessibilityTraits={undefined}
      accessible={true}
      hitSlop={undefined}
      isTVSelectable={true}
      onLayout={undefined}
      onResponderGrant={[Function]}
      onResponderMove={[Function]}
      onResponderRelease={[Function]}
      onResponderTerminate={[Function]}
      onResponderTerminationRequest={[Function]}
      onStartShouldSetResponder={[Function]}
      style={
        Object {
          "alignSelf": "stretch",
          "backgroundColor": "transparent",
          "borderColor": "#3C484A",
          "borderRadius": 4,
          "borderWidth": 2,
          "height": 40,
          "justifyContent": "center",
          "marginTop": 20,
          "opacity": 1,
        }
      }
      testID={undefined}
      tvParallaxProperties={undefined}
    >
      <Text
        accessible={true}
        allowFontScaling={true}
        ellipsizeMode="tail"
        style={
          Array [
            Object {
              "color": "#FFF",
              "fontSize": 11,
              "fontWeight": "bold",
              "letterSpacing": 0.5,
              "marginLeft": 10,
              "marginRight": 10,
              "textAlign": "center",
            },
            undefined,
            Object {
              "color": "#3C484A",
            },
          ]
        }
      >
        ADD
      </Text>
    </View>
  </View>
</View>
`;
