// Jest Snapshot v1, https://goo.gl/fbAQLP

exports[`ModalLoading render correctly modal after update props 1`] = `
<ModalLoading
  loadType="spinner"
  modal={true}
  show="loading"
  text={null}
/>
`;

exports[`ModalLoading renders correctly block modal 1`] = `
<ModalLoading
  loadType="spinner"
  modal={true}
  show={true}
  text={null}
/>
`;

exports[`ModalLoading renders correctly modal text 1`] = `
<ModalLoading
  loadType="spinner"
  modal={true}
  show="loading"
  text={null}
/>
`;
