// Jest Snapshot v1, https://goo.gl/fbAQLP

exports[`renders correctly 1`] = `
<View
  style={
    Array [
      Object {
        "borderColor": "#EEEEEE",
        "borderWidth": 1,
        "padding": 5,
      },
      undefined,
    ]
  }
>
  <QRCode
    bgColor="black"
    fgColor="white"
    size={40}
    value="https://budbuds.us/q/p/test"
  />
</View>
`;
