// Jest Snapshot v1, https://goo.gl/fbAQLP

exports[`MixHeader renders correctly 1`] = `
<View
  style={
    Object {
      "backgroundColor": "#FFFFFF",
      "padding": 15,
    }
  }
>
  <View
    style={
      Object {
        "flex": 1,
      }
    }
  >
    <View
      style={
        Object {
          "borderBottomWidth": 0.5,
          "borderColor": "#EEEEEE",
          "flexDirection": "row",
          "paddingBottom": 10,
        }
      }
    >
      <View
        style={
          Array [
            Object {
              "flex": 1,
            },
          ]
        }
      >
        <RoundedIcon
          object={
            Object {
              "_id": "57bc57b7e6fcf5001184bdb2",
              "created_on": 2016-08-23T14:03:35.189Z,
              "description": "25 litros",
              "fertilizers": Object {
                "0": Object {
                  "measurement": "gl",
                  "name": "Maxigrow",
                  "qty": 0.6000000238418579,
                },
                "1": Object {
                  "measurement": "mll",
                  "name": "Bioheaven",
                  "qty": 3.200000047683716,
                },
                "2": Object {
                  "measurement": "mll",
                  "name": "Biogrow",
                  "qty": 0.7200000286102295,
                },
              },
              "modified_on": 2016-08-23T14:03:35.189Z,
              "name": "Vega",
              "qr_code": "a6043977e1e60ef0fae77e746cc009f30df95c66",
            }
          }
          source={1}
        />
      </View>
      <View
        style={
          Array [
            Object {
              "flex": 3,
              "flexDirection": "column",
            },
            Object {
              "justifyContent": "center",
            },
          ]
        }
      >
        <PlantName
          gender={false}
          name="Vega"
        />
        <Text
          accessible={true}
          allowFontScaling={true}
          ellipsizeMode="tail"
        >
          25 litros
        </Text>
      </View>
      <View
        style={
          Array [
            Object {
              "flex": 1,
            },
            Object {
              "alignItems": "flex-end",
              "justifyContent": "center",
            },
          ]
        }
      />
    </View>
  </View>
</View>
`;
