// Jest Snapshot v1, https://goo.gl/fbAQLP

exports[`renders FontAwesome icon 1`] = `
<View
  style={
    Array [
      undefined,
      null,
      null,
    ]
  }
>
  <Text
    accessible={true}
    allowFontScaling={false}
    ellipsizeMode="tail"
    style={
      Array [
        Object {
          "color": undefined,
          "fontSize": 12,
        },
        undefined,
        Object {
          "fontFamily": "BudBuds",
          "fontStyle": "normal",
          "fontWeight": "normal",
        },
      ]
    }
    visible={true}
  >
    
  </Text>
</View>
`;

exports[`renders Material icon 1`] = `
<View
  style={
    Array [
      undefined,
      null,
      null,
    ]
  }
>
  <Text
    accessible={true}
    allowFontScaling={false}
    ellipsizeMode="tail"
    style={
      Array [
        Object {
          "color": undefined,
          "fontSize": 12,
        },
        undefined,
        Object {
          "fontFamily": "BudBuds",
          "fontStyle": "normal",
          "fontWeight": "normal",
        },
      ]
    }
    visible={true}
  >
    
  </Text>
</View>
`;
