// Jest Snapshot v1, https://goo.gl/fbAQLP

exports[`renders correctly 1`] = `
<View
  style={
    Array [
      Object {
        "flexDirection": "row",
      },
      undefined,
    ]
  }
>
  <Icon
    name="comment"
    roundedWhite={false}
    visible={true}
  />
  <Text
    accessible={true}
    allowFontScaling={true}
    ellipsizeMode="tail"
    style={
      Array [
        Object {
          "color": "#3C484A",
          "paddingLeft": 5,
          "paddingRight": 5,
        },
        undefined,
      ]
    }
  >
    10
  </Text>
</View>
`;

exports[`renders empty text when count is 0 1`] = `null`;
