// Jest Snapshot v1, https://goo.gl/fbAQLP

exports[`renders correctly 1`] = `
<View
  style={
    Array [
      undefined,
      Object {
        "alignItems": "center",
        "backgroundColor": "#EEEEEE",
        "borderRadius": 68,
        "height": 50,
        "justifyContent": "center",
        "width": 50,
      },
      null,
    ]
  }
>
  <Icon
    allowFontScaling={false}
    name="to-water"
    size={12}
    style={
      Array [
        undefined,
        undefined,
      ]
    }
    visible={true}
  />
</View>
`;

exports[`renders default image when type is invalid 1`] = `
<View
  style={
    Array [
      undefined,
      Object {
        "alignItems": "center",
        "backgroundColor": "#EEEEEE",
        "borderRadius": 68,
        "height": 50,
        "justifyContent": "center",
        "width": 50,
      },
      null,
    ]
  }
>
  <Icon
    allowFontScaling={false}
    name="calendar"
    size={12}
    style={
      Array [
        undefined,
        undefined,
      ]
    }
    visible={true}
  />
</View>
`;
