// Jest Snapshot v1, https://goo.gl/fbAQLP

exports[`renders correctly 1`] = `
<BudForms
  arrayComponent={[Function]}
  autoConvert={true}
  autoSave={false}
  autoSaveWaitTime={500}
  clearOnSuccess={false}
  commitOnlyChanges={false}
  doc={
    Object {
      "bornAt": 1999-12-28T14:10:41.228Z,
    }
  }
  errorMessages={Object {}}
  filter={true}
  formId="defaultFormId"
  keepArrays={true}
  logErrors={true}
  objectComponent={[Function]}
  omit={Array []}
  onSubmit={[Function]}
  removeEmptyStrings={true}
  renderFooter={[Function]}
  renderHeader={[Function]}
  replaceOnChange={true}
  schema={
    SimpleSchema {
      "_autoValues": Object {},
      "_blackboxKeys": Array [],
      "_cleanOptions": Object {
        "autoConvert": true,
        "extendAutoValueContext": Object {},
        "filter": true,
        "getAutoValues": true,
        "removeEmptyStrings": true,
        "removeNullsFromArrays": false,
        "trimStrings": true,
      },
      "_constructorOptions": Object {
        "humanizeAutoLabels": true,
      },
      "_depsLabels": Object {},
      "_docValidators": Array [],
      "_firstLevelSchemaKeys": Array [
        "name",
        "email",
        "password",
        "bornAt",
        "origin",
        "userType",
      ],
      "_objectKeys": Object {
        "origin.": Array [
          "key",
          "label",
        ],
        "userType.": Array [
          "key",
          "label",
        ],
      },
      "_schema": Object {
        "bornAt": Object {
          "label": "Born at",
          "optional": false,
          "type": SimpleSchemaGroup {
            "definitions": Array [
              Object {
                "custom": [Function],
                "type": [Function],
              },
            ],
          },
        },
        "email": Object {
          "label": "Email",
          "optional": false,
          "type": SimpleSchemaGroup {
            "definitions": Array [
              Object {
                "regEx": /\\^\\[a-zA-Z0-9\\.!#\\$%&'\\*\\+\\\\/=\\?\\^_\`\\{\\|\\}~-\\]\\+\\(\\?:\\\\\\.\\[A-z0-9!#\\$%&'\\*\\+\\\\/=\\?\\^_\`\\{\\|\\}~-\\]\\+\\)\\*@\\(\\?:\\[A-z0-9\\]\\(\\?:\\[a-z0-9-\\]\\*\\[a-z0-9\\]\\)\\?\\\\\\.\\)\\+\\[A-z0-9\\]\\{2,\\}\\(\\?:\\[a-z0-9-\\]\\*\\[a-z0-9\\]\\)\\?\\$/,
                "type": [Function],
              },
            ],
          },
        },
        "name": Object {
          "label": "Name",
          "optional": false,
          "type": SimpleSchemaGroup {
            "definitions": Array [
              Object {
                "min": 1,
                "type": [Function],
              },
            ],
          },
        },
        "origin": Object {
          "label": "Origin",
          "optional": true,
          "type": SimpleSchemaGroup {
            "definitions": Array [
              Object {
                "type": [Function],
              },
            ],
          },
        },
        "origin.key": Object {
          "label": "Key",
          "optional": false,
          "type": SimpleSchemaGroup {
            "definitions": Array [
              Object {
                "type": [Function],
              },
            ],
          },
        },
        "origin.label": Object {
          "label": "Label",
          "optional": false,
          "type": SimpleSchemaGroup {
            "definitions": Array [
              Object {
                "type": [Function],
              },
            ],
          },
        },
        "password": Object {
          "label": "Password",
          "optional": false,
          "type": SimpleSchemaGroup {
            "definitions": Array [
              Object {
                "min": 6,
                "type": [Function],
              },
            ],
          },
        },
        "userType": Object {
          "label": "User type",
          "optional": true,
          "type": SimpleSchemaGroup {
            "definitions": Array [
              Object {
                "type": [Function],
              },
            ],
          },
        },
        "userType.key": Object {
          "label": "Key",
          "optional": false,
          "type": SimpleSchemaGroup {
            "definitions": Array [
              Object {
                "allowedValues": Array [
                  "GROWER",
                  "CONSUMER",
                  "GARDENER",
                  "CLUB",
                ],
                "type": [Function],
              },
            ],
          },
        },
        "userType.label": Object {
          "label": "Label",
          "optional": false,
          "type": SimpleSchemaGroup {
            "definitions": Array [
              Object {
                "type": [Function],
              },
            ],
          },
        },
      },
      "_schemaKeys": Array [
        "name",
        "email",
        "password",
        "bornAt",
        "origin",
        "userType",
        "userType.key",
        "userType.label",
        "origin.key",
        "origin.label",
      ],
      "_validationContexts": Object {},
      "_validators": Array [],
      "messageBox": MessageBox {
        "language": "en",
        "messageList": Object {
          "en": Object {
            "badDate": "{{label}} is not a valid date",
            "expectedType": "{{label}} must be of type {{dataType}}",
            "keyNotInSchema": "{{name}} is not allowed by the schema",
            "maxCount": "You cannot specify more than {{maxCount}} values",
            "maxDate": "{{label}} cannot be after {{max}}",
            "maxNumber": "{{label}} cannot exceed {{max}}",
            "maxNumberExclusive": "{{label}} must be less than {{max}}",
            "maxString": "{{label}} cannot exceed {{max}} characters",
            "minCount": "You must specify at least {{minCount}} values",
            "minDate": "{{label}} must be on or after {{min}}",
            "minNumber": "{{label}} must be at least {{min}}",
            "minNumberExclusive": "{{label}} must be greater than {{min}}",
            "minString": "{{label}} must be at least {{min}} characters",
            "noDecimal": "{{label}} must be an integer",
            "notAllowed": "{{value}} is not an allowed value",
            "regEx": [Function],
            "required": "{{label}} is required",
          },
        },
      },
      "omit": [Function],
      "pick": [Function],
      "version": 2,
    }
  }
  submitText="[missing \\"en.screens.register.submit\\" translation]"
  trimStrings={true}
  type="function"
  useFormTag={true}
  validate={true}
>
  <NameField
    autoCapitalize="words"
    autoCorrect={false}
    disabled={false}
    fieldName="name"
    i18nScope={null}
    maxLength={40}
    placeholder={true}
    scopeArgs={Object {}}
    showLabel={true}
    type={[Function]}
    useHint={false}
  />
  <EmailField
    autoCapitalize="none"
    autoCorrect={false}
    disabled={false}
    fieldName="email"
    i18nScope={null}
    keyboardType="email-address"
    maxLength={254}
    placeholder={true}
    scopeArgs={Object {}}
    showLabel={true}
    type={[Function]}
    useHint={false}
  />
  <PasswordField
    autoCapitalize="none"
    autoCorrect={false}
    disabled={false}
    fieldName="password"
    i18nScope={null}
    maxLength={80}
    placeholder={true}
    scopeArgs={Object {}}
    secureTextEntry={true}
    showLabel={true}
    type={[Function]}
    useHint={false}
  />
  <BirthDateField
    disabled={false}
    fieldName="bornAt"
    i18nScope={null}
    maxLength={80}
    scopeArgs={Object {}}
    showLabel={true}
    type={[Function]}
    useHint={false}
  />
  <I18nField
    disabled={false}
    fieldName="userType"
    i18nScope="forms.user_type"
    initValue="[missing \\"en.screens.register.user_types.GROWER\\" translation]"
    maxLength={80}
    options={
      Array [
        Object {
          "key": "GROWER",
          "label": "[missing \\"en.screens.register.user_types.GROWER\\" translation]",
        },
        Object {
          "key": "CONSUMER",
          "label": "[missing \\"en.screens.register.user_types.CONSUMER\\" translation]",
        },
      ]
    }
    scopeArgs={Object {}}
    showLabel={true}
    type={[Function]}
    useHint={false}
  />
  <OriginsFactory
    fieldName="origin"
    origins={Array []}
  />
</BudForms>
`;
