// Jest Snapshot v1, https://goo.gl/fbAQLP

exports[`TaskEditHeader renders correctly 1`] = `
<View
  style={
    Object {
      "backgroundColor": "#F1F1F1",
      "padding": 15,
    }
  }
>
  <View
    style={
      Object {
        "flexDirection": "row",
      }
    }
  >
    <View
      style={
        Array [
          Object {
            "flex": 1,
          },
        ]
      }
    >
      <TaskIcon
        rounded={true}
        roundedWhite={true}
        source={1}
        style={
          Object {
            "color": "#95989A",
            "fontSize": 20,
          }
        }
        type="WATER"
      />
    </View>
    <View
      style={
        Array [
          Object {
            "flex": 3,
            "flexDirection": "column",
          },
          Object {
            "justifyContent": "center",
          },
        ]
      }
    >
      <PlantName
        _id="57c85e33b2980600119bf922"
        date={2016-09-01T16:58:27.422Z}
        gender="female"
        genetics="auto"
        name="NLBB"
        nick="nlbb"
        qr_code="f5a182e048066354852cc8483ff8def6b221aa5d"
        source={
          Object {
            "start_date": 2016-07-05T03:00:00.000Z,
            "type": "clone",
          }
        }
        strain={
          Object {
            "_id": "58c1b97ccc558700178cabb8",
            "name": "Northern Lights - Blueberry",
          }
        }
      />
    </View>
    <View
      style={
        Array [
          Object {
            "flex": 1,
          },
          Object {
            "alignItems": "flex-end",
            "justifyContent": "center",
          },
        ]
      }
    >
      <Touchable
        disabled={false}
        onPress={[Function]}
        style={
          Object {
            "flexDirection": "row",
            "justifyContent": "space-between",
          }
        }
      >
        <Icon
          name="square-o"
          roundedWhite={false}
          style={
            Object {
              "color": "#24B574",
              "fontSize": 14,
              "marginRight": 5,
              "paddingTop": 2,
            }
          }
        />
      </Touchable>
    </View>
  </View>
</View>
`;

exports[`TaskEditHeader renders correctly when executed is false 1`] = `
<View
  style={
    Object {
      "backgroundColor": "#F1F1F1",
      "padding": 15,
    }
  }
>
  <View
    style={
      Object {
        "flexDirection": "row",
      }
    }
  >
    <View
      style={
        Array [
          Object {
            "flex": 1,
          },
        ]
      }
    >
      <TaskIcon
        rounded={true}
        roundedWhite={true}
        source={1}
        style={
          Object {
            "color": "#95989A",
            "fontSize": 20,
          }
        }
        type="WATER"
      />
    </View>
    <View
      style={
        Array [
          Object {
            "flex": 3,
            "flexDirection": "column",
          },
          Object {
            "justifyContent": "center",
          },
        ]
      }
    >
      <PlantName
        _id="57c85e33b2980600119bf922"
        date={2016-09-01T16:58:27.422Z}
        gender="female"
        genetics="auto"
        name="NLBB"
        nick="nlbb"
        qr_code="f5a182e048066354852cc8483ff8def6b221aa5d"
        source={
          Object {
            "start_date": 2016-07-05T03:00:00.000Z,
            "type": "clone",
          }
        }
        strain={
          Object {
            "_id": "58c1b97ccc558700178cabb8",
            "name": "Northern Lights - Blueberry",
          }
        }
      />
    </View>
    <View
      style={
        Array [
          Object {
            "flex": 1,
          },
          Object {
            "alignItems": "flex-end",
            "justifyContent": "center",
          },
        ]
      }
    >
      <Touchable
        disabled={false}
        onPress={[Function]}
        style={
          Object {
            "flexDirection": "row",
            "justifyContent": "space-between",
          }
        }
      >
        <Icon
          name="check-square-o"
          roundedWhite={false}
          style={
            Object {
              "color": "#24B574",
              "fontSize": 14,
              "marginRight": 5,
              "paddingTop": 2,
            }
          }
        />
      </Touchable>
    </View>
  </View>
</View>
`;
