// Jest Snapshot v1, https://goo.gl/fbAQLP

exports[`renders correctly 1`] = `
<RCTScrollView
  alwaysBounceHorizontal={undefined}
  alwaysBounceVertical={true}
  onContentSizeChange={null}
  onMomentumScrollBegin={[Function]}
  onMomentumScrollEnd={[Function]}
  onResponderGrant={[Function]}
  onResponderReject={[Function]}
  onResponderRelease={[Function]}
  onResponderTerminate={undefined}
  onResponderTerminationRequest={[Function]}
  onScroll={[Function]}
  onScrollBeginDrag={[Function]}
  onScrollEndDrag={[Function]}
  onScrollShouldSetResponder={[Function]}
  onStartShouldSetResponder={[Function]}
  onStartShouldSetResponderCapture={[Function]}
  onTouchEnd={[Function]}
  onTouchMove={[Function]}
  onTouchStart={[Function]}
  scrollEventThrottle={undefined}
  sendMomentumEvents={false}
  style={
    Array [
      Object {
        "flexDirection": "column",
        "flexGrow": 1,
        "flexShrink": 1,
        "overflow": "scroll",
      },
      Object {
        "backgroundColor": "#CDEEDF",
        "flex": 1,
      },
    ]
  }
>
  <RCTScrollContentView
    collapsable={false}
    removeClippedSubviews={undefined}
    style={
      Array [
        undefined,
        undefined,
      ]
    }
  >
    <View
      style={
        Array [
          Object {
            "backgroundColor": "transparent",
            "position": "relative",
          },
          Object {
            "height": 1334,
            "width": 750,
          },
        ]
      }
    >
      <RCTScrollView
        activeDot={
          <View
            style={
              Array [
                Object {
                  "backgroundColor": "#A7E1C7",
                  "borderRadius": 4,
                  "height": 8,
                  "marginBottom": 3,
                  "marginLeft": 3,
                  "marginRight": 3,
                  "marginTop": 3,
                  "width": 8,
                },
                Object {
                  "backgroundColor": "#24B574",
                },
              ]
            }
          />
        }
        alwaysBounceHorizontal={true}
        alwaysBounceVertical={false}
        automaticallyAdjustContentInsets={false}
        autoplay={false}
        autoplayDirection={true}
        autoplayTimeout={2.5}
        bounces={false}
        contentContainerStyle={
          Array [
            Object {
              "backgroundColor": "transparent",
            },
            undefined,
          ]
        }
        contentOffset={
          Object {
            "x": 0,
          }
        }
        dot={
          <View
            style={
              Object {
                "backgroundColor": "#A7E1C7",
                "borderRadius": 4,
                "height": 8,
                "marginBottom": 3,
                "marginLeft": 3,
                "marginRight": 3,
                "marginTop": 3,
                "width": 8,
              }
            }
          />
        }
        horizontal={true}
        index={0}
        loadMinimal={false}
        loadMinimalSize={1}
        loop={false}
        onContentSizeChange={null}
        onMomentumScrollBegin={[Function]}
        onMomentumScrollEnd={[Function]}
        onResponderGrant={[Function]}
        onResponderReject={[Function]}
        onResponderRelease={[Function]}
        onResponderTerminate={undefined}
        onResponderTerminationRequest={[Function]}
        onScroll={[Function]}
        onScrollBeginDrag={[Function]}
        onScrollEndDrag={[Function]}
        onScrollShouldSetResponder={[Function]}
        onStartShouldSetResponder={[Function]}
        onStartShouldSetResponderCapture={[Function]}
        onTouchEnd={[Function]}
        onTouchMove={[Function]}
        onTouchStart={[Function]}
        pagingEnabled={true}
        removeClippedSubviews={true}
        scrollEventThrottle={undefined}
        scrollsToTop={false}
        sendMomentumEvents={true}
        showsButtons={false}
        showsHorizontalScrollIndicator={false}
        showsPagination={true}
        showsVerticalScrollIndicator={false}
        style={
          Array [
            Object {
              "flexDirection": "row",
              "flexGrow": 1,
              "flexShrink": 1,
              "overflow": "scroll",
            },
            undefined,
          ]
        }
      >
        <RCTScrollContentView
          collapsable={false}
          removeClippedSubviews={true}
          style={
            Array [
              Object {
                "flexDirection": "row",
              },
              Array [
                Object {
                  "backgroundColor": "transparent",
                },
                undefined,
              ],
            ]
          }
        >
          <View
            style={
              Array [
                Object {
                  "height": 1334,
                  "width": 750,
                },
                Object {
                  "backgroundColor": "transparent",
                },
              ]
            }
          >
            <View
              style={
                Object {
                  "alignItems": "center",
                  "flex": 1,
                  "justifyContent": "space-around",
                  "marginBottom": 50,
                  "marginTop": 30,
                  "paddingHorizontal": "10%",
                }
              }
            >
              <View
                style={
                  Object {
                    "height": 260,
                    "justifyContent": "center",
                    "marginBottom": 25,
                  }
                }
              >
                <Image
                  source={1}
                />
              </View>
              <Text
                accessible={true}
                allowFontScaling={true}
                ellipsizeMode="tail"
                style={
                  Object {
                    "color": "#3C484A",
                    "fontSize": 24,
                    "fontWeight": "bold",
                  }
                }
              >
                [missing "en.screens.tour.slide1.title" translation]
              </Text>
              <Text
                accessible={true}
                allowFontScaling={true}
                ellipsizeMode="tail"
                style={
                  Object {
                    "color": "#3C484A",
                    "fontSize": 18,
                    "textAlign": "center",
                  }
                }
              >
                [missing "en.screens.tour.slide1.text" translation]
              </Text>
              <Image
                source={1}
              />
            </View>
          </View>
          <View
            style={
              Array [
                Object {
                  "height": 1334,
                  "width": 750,
                },
                Object {
                  "backgroundColor": "transparent",
                },
              ]
            }
          >
            <View
              style={
                Object {
                  "alignItems": "center",
                  "flex": 1,
                  "justifyContent": "space-around",
                  "marginBottom": 50,
                  "marginTop": 30,
                  "paddingHorizontal": "10%",
                }
              }
            >
              <View
                style={
                  Object {
                    "height": 260,
                    "justifyContent": "center",
                    "marginBottom": 25,
                  }
                }
              >
                <Image
                  source={1}
                />
              </View>
              <Text
                accessible={true}
                allowFontScaling={true}
                ellipsizeMode="tail"
                style={
                  Object {
                    "color": "#3C484A",
                    "fontSize": 24,
                    "fontWeight": "bold",
                  }
                }
              >
                [missing "en.screens.tour.slide2.title" translation]
              </Text>
              <Text
                accessible={true}
                allowFontScaling={true}
                ellipsizeMode="tail"
                style={
                  Object {
                    "color": "#3C484A",
                    "fontSize": 18,
                    "textAlign": "center",
                  }
                }
              >
                [missing "en.screens.tour.slide2.text" translation]
              </Text>
            </View>
          </View>
          <View
            style={
              Array [
                Object {
                  "height": 1334,
                  "width": 750,
                },
                Object {
                  "backgroundColor": "transparent",
                },
              ]
            }
          >
            <View
              style={
                Object {
                  "alignItems": "center",
                  "flex": 1,
                  "justifyContent": "space-around",
                  "marginBottom": 50,
                  "marginTop": 30,
                  "paddingHorizontal": "10%",
                }
              }
            >
              <View
                style={
                  Object {
                    "height": 260,
                    "justifyContent": "center",
                    "marginBottom": 25,
                  }
                }
              >
                <Image
                  source={1}
                />
              </View>
              <Text
                accessible={true}
                allowFontScaling={true}
                ellipsizeMode="tail"
                style={
                  Object {
                    "color": "#3C484A",
                    "fontSize": 24,
                    "fontWeight": "bold",
                  }
                }
              >
                [missing "en.screens.tour.slide3.title" translation]
              </Text>
              <Text
                accessible={true}
                allowFontScaling={true}
                ellipsizeMode="tail"
                style={
                  Object {
                    "color": "#3C484A",
                    "fontSize": 18,
                    "textAlign": "center",
                  }
                }
              >
                [missing "en.screens.tour.slide3.text" translation]
              </Text>
            </View>
          </View>
          <View
            style={
              Array [
                Object {
                  "height": 1334,
                  "width": 750,
                },
                Object {
                  "backgroundColor": "transparent",
                },
              ]
            }
          >
            <View
              style={
                Object {
                  "alignItems": "center",
                  "flex": 1,
                  "justifyContent": "space-around",
                  "marginBottom": 50,
                  "marginTop": 30,
                  "paddingHorizontal": "10%",
                }
              }
            >
              <View
                style={
                  Object {
                    "height": 260,
                    "justifyContent": "center",
                    "marginBottom": 25,
                  }
                }
              >
                <Image
                  source={1}
                />
              </View>
              <Text
                accessible={true}
                allowFontScaling={true}
                ellipsizeMode="tail"
                style={
                  Object {
                    "color": "#3C484A",
                    "fontSize": 24,
                    "fontWeight": "bold",
                  }
                }
              >
                [missing "en.screens.tour.slide4.title" translation]
              </Text>
              <Text
                accessible={true}
                allowFontScaling={true}
                ellipsizeMode="tail"
                style={
                  Object {
                    "color": "#3C484A",
                    "fontSize": 18,
                    "textAlign": "center",
                  }
                }
              >
                [missing "en.screens.tour.slide4.text" translation]
              </Text>
            </View>
          </View>
          <View
            style={
              Array [
                Object {
                  "height": 1334,
                  "width": 750,
                },
                Object {
                  "backgroundColor": "transparent",
                },
              ]
            }
          >
            <View
              style={
                Object {
                  "alignItems": "center",
                  "flex": 1,
                  "justifyContent": "space-around",
                  "marginBottom": 50,
                  "marginTop": 30,
                  "paddingHorizontal": "10%",
                }
              }
            >
              <View
                style={
                  Object {
                    "height": 260,
                    "justifyContent": "center",
                    "marginBottom": 25,
                  }
                }
              >
                <Image
                  source={1}
                />
              </View>
              <Text
                accessible={true}
                allowFontScaling={true}
                ellipsizeMode="tail"
                style={
                  Object {
                    "color": "#3C484A",
                    "fontSize": 24,
                    "fontWeight": "bold",
                  }
                }
              >
                [missing "en.screens.tour.slide5.title" translation]
              </Text>
              <Text
                accessible={true}
                allowFontScaling={true}
                ellipsizeMode="tail"
                style={
                  Object {
                    "color": "#3C484A",
                    "fontSize": 18,
                    "textAlign": "center",
                  }
                }
              >
                [missing "en.screens.tour.slide5.text" translation]
              </Text>
              <View
                accessibilityComponentType={undefined}
                accessibilityLabel={undefined}
                accessibilityTraits={undefined}
                accessible={true}
                hitSlop={undefined}
                isTVSelectable={true}
                onLayout={undefined}
                onResponderGrant={[Function]}
                onResponderMove={[Function]}
                onResponderRelease={[Function]}
                onResponderTerminate={[Function]}
                onResponderTerminationRequest={[Function]}
                onStartShouldSetResponder={[Function]}
                style={
                  Object {
                    "alignItems": "center",
                    "alignSelf": "stretch",
                    "backgroundColor": "transparent",
                    "borderColor": "#360968",
                    "borderRadius": 4,
                    "borderWidth": 2,
                    "flexDirection": "row",
                    "height": 50,
                    "justifyContent": "center",
                    "marginTop": 10,
                    "opacity": 1,
                  }
                }
                testID={undefined}
                tvParallaxProperties={undefined}
              >
                <Text
                  accessible={true}
                  allowFontScaling={true}
                  ellipsizeMode="tail"
                  style={
                    Object {
                      "color": "#360968",
                      "fontSize": 11,
                      "fontWeight": "bold",
                      "marginRight": 5,
                    }
                  }
                >
                  [MISSING "EN.SCREENS.PRE-REGISTER.CONTINUE_BUTTON" TRANSLATION]
                </Text>
                <View
                  style={
                    Array [
                      undefined,
                      null,
                      null,
                    ]
                  }
                >
                  <Text
                    accessible={true}
                    allowFontScaling={false}
                    ellipsizeMode="tail"
                    style={
                      Array [
                        Object {
                          "color": "#360968",
                          "fontSize": 11,
                        },
                        Object {
                          "color": "#360968",
                          "fontSize": 11,
                        },
                        Object {
                          "fontFamily": "BudBuds",
                          "fontStyle": "normal",
                          "fontWeight": "normal",
                        },
                      ]
                    }
                    visible={true}
                  >
                    
                  </Text>
                </View>
              </View>
            </View>
          </View>
        </RCTScrollContentView>
      </RCTScrollView>
      <View
        pointerEvents="none"
        style={
          Array [
            Object {
              "alignItems": "center",
              "backgroundColor": "transparent",
              "bottom": 25,
              "flex": 1,
              "flexDirection": "row",
              "justifyContent": "center",
              "left": 0,
              "position": "absolute",
              "right": 0,
            },
            undefined,
          ]
        }
      >
        <View
          style={
            Array [
              Object {
                "backgroundColor": "#A7E1C7",
                "borderRadius": 4,
                "height": 8,
                "marginBottom": 3,
                "marginLeft": 3,
                "marginRight": 3,
                "marginTop": 3,
                "width": 8,
              },
              Object {
                "backgroundColor": "#24B574",
              },
            ]
          }
        />
        <View
          style={
            Object {
              "backgroundColor": "#A7E1C7",
              "borderRadius": 4,
              "height": 8,
              "marginBottom": 3,
              "marginLeft": 3,
              "marginRight": 3,
              "marginTop": 3,
              "width": 8,
            }
          }
        />
        <View
          style={
            Object {
              "backgroundColor": "#A7E1C7",
              "borderRadius": 4,
              "height": 8,
              "marginBottom": 3,
              "marginLeft": 3,
              "marginRight": 3,
              "marginTop": 3,
              "width": 8,
            }
          }
        />
        <View
          style={
            Object {
              "backgroundColor": "#A7E1C7",
              "borderRadius": 4,
              "height": 8,
              "marginBottom": 3,
              "marginLeft": 3,
              "marginRight": 3,
              "marginTop": 3,
              "width": 8,
            }
          }
        />
        <View
          style={
            Object {
              "backgroundColor": "#A7E1C7",
              "borderRadius": 4,
              "height": 8,
              "marginBottom": 3,
              "marginLeft": 3,
              "marginRight": 3,
              "marginTop": 3,
              "width": 8,
            }
          }
        />
      </View>
    </View>
  </RCTScrollContentView>
</RCTScrollView>
`;
